LoKi functor, ThOr equivalent, Equal values?, Comments
``AALL``/``ATRUE``, ``F.ALL``, ✔,
``ACHILD``, ``F.CHILD``, ✔, 
"``ACHI2DOCA(x, y)``","``F.DOCACHI2(x, y)``", ✔, Indices ``x`` and ``y`` are child indices (starting from one).
``ACUTDOCACHI2``, ``F.MAXDOCACHI2CUT``, ✔,
``ACUTDOCA``, ``F.MAXDOCACUT``, ✔,
"``ADOCA(x, y)``","``F.DOCA(x, y)``", ✔, Indices ``x`` and ``y`` are child indices (starting from one).
``ADOCACHI2``, , N/A, No direct equivalent; use ``F.MAXDOCACHI2CUT`` instead.
``ADOCAMAX``, , N/A, No direct equivalent; use ``F.MAXDOCACUT`` instead.
``AHASCHILD(<predicate>)``, ``F.SUM(<predicate>) > 0``, ✔,
``AMAXCHILD``, ``F.MAX``, ✔,
``AMINCHILD``, ``F.MIN``, ✔,
``AM``/``AM0``/``AMASS``, ``F.MASS``, ✔,
``ANONE``/``AFALSE``, ``F.NONE``, ✔,
``ANUM(<predicate>)``, ``F.SUM(<predicate>)``, ✔,
``APT``, ``F.PT``, ✔,
``ASUM``, ``F.SUM``, ✔,
