GraphClustering_72971694               INFO Built <104.694> graph calo clustering clusters/event
ApplicationMgr                         INFO Application Manager Finalized successfully
ApplicationMgr                         INFO Application Manager Terminated successfully
CaloAcceptanceBremAlg_Long_59473594    INFO Number of counters : 2
 |    Counter                                      |     #     |    sum     | mean/eff^* | rms/err^*  |     min     |     max     |
 | "#total tracks"                                 |       500 |       6747 |     13.494 |     8.7673 |      0.0000 |      44.000 |
 | "#tracks in acceptance"                         |       500 |       6627 |     13.254 |     8.6275 |      0.0000 |      42.000 |
CaloAcceptanceEcalAlg_Long_962caf1a    INFO Number of counters : 2
 |    Counter                                      |     #     |    sum     | mean/eff^* | rms/err^*  |     min     |     max     |
 | "#total tracks"                                 |       500 |       6747 |     13.494 |     8.7673 |      0.0000 |      44.000 |
 | "#tracks in acceptance"                         |       500 |       5751 |     11.502 |     7.5798 |      0.0000 |      35.000 |
CaloAcceptanceEcalAlg_Ttrack_4be...    INFO Number of counters : 2
 |    Counter                                      |     #     |    sum     | mean/eff^* | rms/err^*  |     min     |     max     |
 | "#total tracks"                                 |       500 |      22830 |     45.660 |     29.263 |      0.0000 |      160.00 |
 | "#tracks in acceptance"                         |       500 |      20112 |     40.224 |     25.616 |      0.0000 |      141.00 |
CaloAcceptanceHcalAlg_Long_5338729c    INFO Number of counters : 2
 |    Counter                                      |     #     |    sum     | mean/eff^* | rms/err^*  |     min     |     max     |
 | "#total tracks"                                 |       500 |       6747 |     13.494 |     8.7673 |      0.0000 |      44.000 |
 | "#tracks in acceptance"                         |       500 |       5356 |     10.712 |     7.1566 |      0.0000 |      34.000 |
CaloFutureClusterCovarianceAlg_5...    INFO Number of counters : 1
 |    Counter                                      |     #     |    sum     | mean/eff^* | rms/err^*  |     min     |     max     |
 | "# clusters"                                    |     52347 |
CaloFutureClusterCovarianceAlg_5...    INFO Number of counters : 3
 |    Counter                                      |     #     |    sum     | mean/eff^* | rms/err^*  |     min     |     max     |
 | "Corrected Clusters: # cells "                  |     10543 |      41854 |     3.9698 |     1.1855 |      2.0000 |      11.000 |
 | "Corrected Clusters: ET"                        |     10543 |    2176195 |     206.41 |     266.97 |      0.0000 |      5138.0 |
 | "Corrected Clusters: size ratio"                |     10543 |   5052.256 |    0.47920 |    0.44821 | -7.3447e-16 |      5.4424 |
CaloFutureMergedPi0_2d2bf8a3           INFO Number of counters : 12
 |    Counter                                      |     #     |    sum     | mean/eff^* | rms/err^*  |     min     |     max     |
 |*"Cluster without 2nd seed found"                |       952 |          0 |( 0.000000 +- 0.000000)% |
 | "Corrected energy"                              |      1900 |2.288487e+07 |    12045.0 |    15136.0 |      30.264 |  1.9753e+05 |
 |*"Fails to set covariance"                       |      1900 |          0 |( 0.000000 +- 0.000000)% |
 |*"Fails to set spread"                           |      1900 |          0 |( 0.000000 +- 0.000000)% |
 |*"Fails to tag(E) cluster (1)"                   |       950 |          0 |( 0.000000 +- 0.000000)% |
 |*"Fails to tag(E) cluster (2)"                   |       950 |          0 |( 0.000000 +- 0.000000)% |
 | "Photon Delta(E)"                               |      1900 |  -397249.4 |    -209.08 |     512.31 |     -5646.1 |      6962.7 |
 | "Photon Delta(X)"                               |      1900 |  -583.9768 |   -0.30736 |     12.471 |     -35.638 |      25.767 |
 | "Photon Delta(Y)"                               |      1900 |  -91.99112 |  -0.048416 |     12.422 |     -22.781 |      35.199 |
 | "Photon Delta(Z)"                               |      1900 |   146232.6 |     76.965 |     13.428 |      9.7344 |      131.78 |
 | "clusters => mergedPi0s"                        |       500 |        950 |     1.9000 |
 | "clusters => splitClusters"                     |       500 |       1900 |     3.8000 |
CaloFutureMergedPi0_2d2bf8a3.Cal...    INFO Number of counters : 6
 |    Counter                                      |     #     |    sum     | mean/eff^* | rms/err^*  |     min     |     max     |
 | "<alpha> Inner"                                 |       428 |   423.9399 |    0.99051 |   0.022683 |     0.96511 |      1.1340 |
 | "<alpha> Middle"                                |       444 |   444.6536 |     1.0015 |   0.021670 |     0.97688 |      1.1249 |
 | "<alpha> Outer"                                 |      1028 |   1025.187 |    0.99726 |   0.019082 |     0.97370 |      1.0681 |
 | "Pileup offset"                                 |      1900 |   180915.6 |     95.219 |     135.06 |      0.0000 |      1310.3 |
 | "Pileup scale"                                  |      1900 |       4114 |     2.1653 |    0.99528 |      0.0000 |      5.0000 |
 | "Pileup subtracted ratio"                       |      1900 |   1877.924 |    0.98838 |   0.017865 |     0.51427 |      1.0000 |
CaloFutureMergedPi0_2d2bf8a3.Eca...    INFO Number of counters : 3
 |    Counter                                      |     #     |    sum     | mean/eff^* | rms/err^*  |     min     |     max     |
 | "Corrected Clusters: # cells "                  |       316 |       1825 |     5.7753 |     1.6564 |      2.0000 |      9.0000 |
 | "Corrected Clusters: ET"                        |       316 |   379223.2 |     1200.1 |     1182.1 |      6.4000 |     10155.0 |
 | "Corrected Clusters: size ratio"                |       316 |   121.3583 |    0.38405 |    0.37655 |      0.0000 |      2.2469 |
CaloSelectiveBremMatchAlg_Long_9...    INFO Number of counters : 3
 |    Counter                                      |     #     |    sum     | mean/eff^* | rms/err^*  |     min     |     max     |
 | "#links in table"                               |       500 |       1271 |     2.5420 |     3.1982 |      0.0000 |      19.000 |
 | "average chi2"                                  |      1271 |   6240.624 |     4.9100 |     6.8436 |  1.4142e-05 |      55.896 |
 | "average energy (track based)"                  |      6627 |   137623.3 |     20.767 |     87.466 |      0.0000 |      2960.3 |
CaloSelectiveElectronMatchAlg_Lo...    INFO Number of counters : 2
 |    Counter                                      |     #     |    sum     | mean/eff^* | rms/err^*  |     min     |     max     |
 | "#links in table"                               |       500 |       4016 |     8.0320 |     6.1608 |      0.0000 |      30.000 |
 | "average chi2"                                  |      4016 |   132585.1 |     33.014 |     83.317 |  0.00029417 |      1920.3 |
CaloSelectiveTrackMatchAlg_Long_...    INFO Number of counters : 2
 |    Counter                                      |     #     |    sum     | mean/eff^* | rms/err^*  |     min     |     max     |
 | "#links in table"                               |       500 |       4083 |     8.1660 |     6.2327 |      0.0000 |      32.000 |
 | "average chi2"                                  |      4083 |   3116.182 |    0.76321 |     2.8309 |  4.8593e-05 |      161.27 |
CaloSelectiveTrackMatchAlg_Ttrac...    INFO Number of counters : 2
 |    Counter                                      |     #     |    sum     | mean/eff^* | rms/err^*  |     min     |     max     |
 | "#links in table"                               |       500 |      14849 |     29.698 |     20.609 |      0.0000 |      115.00 |
 | "average chi2"                                  |     14849 |   938.6522 |   0.063213 |    0.40276 |  7.1038e-07 |      46.668 |
CaloTrackBasedElectronShowerAlg_...    INFO Number of counters : 2
 |    Counter                                      |     #     |    sum     | mean/eff^* | rms/err^*  |     min     |     max     |
 | "average DLL"                                   |      5751 |  -2134.802 |   -0.37121 |    0.49537 |     -9.1667 |     0.92725 |
 | "average E/p"                                   |      5751 |   102.3493 |   0.017797 |   0.030635 |      0.0000 |     0.83092 |
CaloTrackToHcalEnergyAlg_Long_e2...    INFO Number of counters : 1
 |    Counter                                      |     #     |    sum     | mean/eff^* | rms/err^*  |     min     |     max     |
 | "energy (calo) associated to track"             |      5356 |1.512312e+07 |     2823.6 |     5731.5 |      0.0000 |  1.3637e+05 |
ChargedProtoParticleMakerLong_8f...    INFO Number of counters : 1
 |    Counter                                      |     #     |    sum     | mean/eff^* | rms/err^*  |     min     |     max     |
 | "CreatedProtos"                                 |      6747 |
ClassifyPhotonElectronAlg_8cdf1ac7     INFO Number of counters : 14
 |    Counter                                      |     #     |    sum     | mean/eff^* | rms/err^*  |     min     |     max     |
 | "Electron Delta(E)"                             |     16126 |   -1904382 |    -118.09 |     264.07 |     -2915.9 |      2986.7 |
 | "Electron Delta(X)"                             |     16126 |  -6137.082 |   -0.38057 |     12.126 |     -108.04 |      100.08 |
 | "Electron Delta(Y)"                             |     16126 |  -2170.146 |   -0.13457 |     12.005 |     -69.294 |      63.467 |
 | "Electron Delta(Z)"                             |     16126 |    1026953 |     63.683 |     13.603 |     -8.7100 |      134.18 |
 | "Electron corrected energy"                     |     16126 |8.60783e+07 |     5337.9 |     6342.4 |      22.641 |  1.5073e+05 |
 | "Electrons pT-rejected after correction"        |        61 |
 | "Photon Delta(E)"                               |     35588 |   -1803877 |    -50.688 |     219.85 |     -6609.0 |     10018.0 |
 | "Photon Delta(X)"                               |     35588 |  -11776.55 |   -0.33091 |     12.804 |     -91.535 |      100.08 |
 | "Photon Delta(Y)"                               |     35588 |  -19701.63 |   -0.55360 |     12.887 |     -91.490 |      159.82 |
 | "Photon Delta(Z)"                               |     35588 |    1989892 |     55.915 |     13.145 |     -8.7100 |      134.18 |
 | "Photon corrected energy"                       |     35588 |1.254354e+08 |     3524.7 |     6430.3 |      22.641 |  3.1384e+05 |
 | "Photons pT-rejected after correction"          |       298 |
 | "electronHypos"                                 |       500 |      16065 |     32.130 |     20.090 |      0.0000 |      106.00 |
 | "photonHypos"                                   |       500 |      35290 |     70.580 |     38.844 |      0.0000 |      179.00 |
ClassifyPhotonElectronAlg_8cdf1a...    INFO Number of counters : 7
 |    Counter                                      |     #     |    sum     | mean/eff^* | rms/err^*  |     min     |     max     |
 | "<alpha> Inner"                                 |     14424 |   14398.83 |    0.99825 |   0.023112 |     0.96439 |      1.3021 |
 | "<alpha> Middle"                                |     13662 |   13780.47 |     1.0087 |   0.022409 |     0.97669 |      1.1981 |
 | "<alpha> Outer"                                 |     23620 |   23661.75 |     1.0018 |   0.018657 |     0.97360 |      1.2027 |
 | "Pileup offset"                                 |     51706 |    7753785 |     149.96 |     187.90 |     -3921.6 |      1736.6 |
 | "Pileup scale"                                  |     51714 |     112495 |     2.1753 |    0.96289 |      0.0000 |      5.0000 |
 | "Pileup subtracted ratio"                       |     51706 |   48593.81 |    0.93981 |   0.074033 |   0.0047812 |      1.2339 |
 | "Skip negative energy correction"               |         8 |
CloneKillerForward_77b8ecc6            INFO Number of counters : 2
 |    Counter                                      |     #     |    sum     | mean/eff^* | rms/err^*  |     min     |     max     |
 | "nTracksInput"                                  |       500 |       5982 |     11.964 |
 | "nTracksSelected"                               |       500 |        693 |     1.3860 |
DefaultGECFilter                       INFO Number of counters : 1
 |    Counter                                      |     #     |    sum     | mean/eff^* | rms/err^*  |     min     |     max     |
 | "Nb Events Processed"                           |       500 |
FutureNeutralProtoPAlg_a23dd7cd        INFO Number of counters : 4
 |    Counter                                      |     #     |    sum     | mean/eff^* | rms/err^*  |     min     |     max     |
 | "Neutral Protos"                                |       500 |      38140 |     76.280 |     43.731 |      0.0000 |      203.00 |
 | "Neutral Protos from MergedPi0s"                |       500 |        950 |     1.9000 |     2.4319 |      0.0000 |      20.000 |
 | "Neutral Protos from Photons"                   |       500 |      35290 |     70.580 |     38.844 |      0.0000 |      179.00 |
 | "Neutral Protos from SplitPhotons"              |       500 |       1900 |     3.8000 |     4.8637 |      0.0000 |      40.000 |
GraphClustering_72971694               INFO Number of counters : 4
 |    Counter                                      |     #     |    sum     | mean/eff^* | rms/err^*  |     min     |     max     |
 | "# clusters"                                    |       500 |      52347 |     104.69 |     57.414 |      0.0000 |      269.00 |
 | "Cluster energy"                                |     52347 |2.123417e+08 |     4056.4 |     6474.4 |     0.39999 |  3.1291e+05 |
 | "Cluster size"                                  |     52347 |     521767 |     9.9675 |     2.2823 |      4.0000 |      25.000 |
 | "Negative energy clusters"                      |        41 |         48 |     1.1707 |    0.43631 |      1.0000 |      3.0000 |
HLTControlFlowMgr                      INFO Number of counters : 1
 |    Counter                                      |     #     |    sum     | mean/eff^* | rms/err^*  |     min     |     max     |
 | "Processed events"                              |       500 |
LHCb__Converters__Track__SOA__fr...    INFO Number of counters : 2
 |    Counter                                      |     #     |    sum     | mean/eff^* | rms/err^*  |     min     |     max     |
 | "Nb of Events without Tracks"                   |        23 |          0 |     0.0000 |
 | "Nb of Produced Tracks"                         |       477 |      22830 |     47.862 |
LHCb__Converters__Track__SOA__fr...    INFO Number of counters : 2
 |    Counter                                      |     #     |    sum     | mean/eff^* | rms/err^*  |     min     |     max     |
 | "Nb of Events without Tracks"                   |        23 |          0 |     0.0000 |
 | "Nb of Produced Tracks"                         |       477 |       6747 |     14.145 |
MuonIDHlt2AlgLong_9bea4865             INFO Number of counters : 7
 |    Counter                                      |     #     |    sum     | mean/eff^* | rms/err^*  |     min     |     max     |
 | "BgLL"                                          |       779 |  -507.6915 |   -0.65172 |     1.1329 |     -7.7469 |      0.0000 |
 | "MuLL"                                          |       779 |  -6968.115 |    -8.9449 |     3.4839 |     -11.513 |   -0.025926 |
 | "muonMVAStat"                                   |       779 |  -373.7758 |   -0.47981 |    0.98151 |     -3.3166 |      3.6860 |
 |*"nInAcceptance"                                 |      6747 |       5161 |( 76.49326 +- 0.5162410)% |
 |*"nIsMuon"                                       |      6747 |        779 |( 11.54587 +- 0.3890604)% |
 |*"nIsMuonTight"                                  |      6747 |        297 |( 4.401956 +- 0.2497422)% |
 |*"nMomentumCut"                                  |      6747 |       5790 |( 85.81592 +- 0.4247459)% |
MuonPIDV2ToMuonTracks_Long_fa634bd2    INFO Number of counters : 1
 |    Counter                                      |     #     |    sum     | mean/eff^* | rms/err^*  |     min     |     max     |
 | "Nb of input v2 MuonPIDs"                       |       500 |       6747 |     13.494 |
PatPV3DFuture_1e9bbb95                 INFO Number of counters : 1
 |    Counter                                      |     #     |    sum     | mean/eff^* | rms/err^*  |     min     |     max     |
 | "Nb PVs"                                        |       500 |        914 |     1.8280 |
PrForwardTrackingVelo_b047b63d         INFO Number of counters : 10
 |    Counter                                      |     #     |    sum     | mean/eff^* | rms/err^*  |     min     |     max     |
 | "Accepted input tracks"                         |       477 |      16735 |     35.084 |
 | "Created long tracks"                           |       477 |       5982 |     12.541 |
 | "Input tracks"                                  |       477 |      17246 |     36.155 |
 | "Number of candidate bins per track"            |     16735 |      26780 |     1.6002 |     2.8528 |      0.0000 |      30.000 |
 | "Number of complete candidates/track 1st Loop"  |      9918 |       5710 |    0.57572 |    0.54451 |      0.0000 |      3.0000 |
 | "Number of complete candidates/track 2nd Loop"  |      5757 |        534 |   0.092757 |    0.29602 |      0.0000 |      3.0000 |
 | "Number of x candidates per track 1st Loop"     |      9918 |       8673 |    0.87447 |    0.78699 |
 | "Number of x candidates per track 2nd Loop"     |      5757 |       8140 |     1.4139 |     1.6233 |
 | "Percentage second loop execution"              |      9918 |       5757 |    0.58046 |
 | "Removed duplicates"                            |       477 |         94 |    0.19706 |
PrHybridSeeding_4d0337cc               INFO Number of counters : 21
 |    Counter                                      |     #     |    sum     | mean/eff^* | rms/err^*  |     min     |     max     |
 | "Created T2x1 three-hit combinations in case 0" |    383548 |     230439 |    0.60081 |    0.60214 |      0.0000 |      6.0000 |
 | "Created T2x1 three-hit combinations in case 1" |    641981 |     411063 |    0.64030 |    0.69176 |      0.0000 |      9.0000 |
 | "Created T2x1 three-hit combinations in case 2" |   1144149 |     896327 |    0.78340 |    0.90947 |      0.0000 |      21.000 |
 | "Created XZ tracks (part 0)"                    |      1500 |      45800 |     30.533 |     40.919 |      0.0000 |      478.00 |
 | "Created XZ tracks (part 1)"                    |      1500 |      41618 |     27.745 |     39.395 |      0.0000 |      473.00 |
 | "Created XZ tracks in case 0"                   |      1000 |      28248 |     28.248 |     28.181 |      0.0000 |      238.00 |
 | "Created XZ tracks in case 1"                   |      1000 |      31541 |     31.541 |     41.865 |      0.0000 |      386.00 |
 | "Created XZ tracks in case 2"                   |      1000 |      27629 |     27.629 |     47.850 |      0.0000 |      478.00 |
 | "Created full hit combinations in case 0"       |     41088 |      41088 |     1.0000 |     0.0000 |      1.0000 |      1.0000 |
 | "Created full hit combinations in case 1"       |     41862 |      41862 |     1.0000 |     0.0000 |      1.0000 |      1.0000 |
 | "Created full hit combinations in case 2"       |     53739 |      53739 |     1.0000 |     0.0000 |      1.0000 |      1.0000 |
 | "Created seed tracks"                           |      1000 |      28850 |     28.850 |     18.403 |      0.0000 |      97.000 |
 | "Created seed tracks (part 0)"                  |       500 |      19421 |     38.842 |     24.969 |      0.0000 |      125.00 |
 | "Created seed tracks (part 1)"                  |       500 |      18787 |     37.574 |     24.051 |      0.0000 |      119.00 |
 | "Created seed tracks in case 0"                 |      1000 |      15922 |     15.922 |     10.361 |      0.0000 |      55.000 |
 | "Created seed tracks in case 1"                 |      1000 |      28682 |     28.682 |     18.225 |      0.0000 |      93.000 |
 | "Created seed tracks in case 2"                 |      1000 |      35843 |     35.843 |     22.981 |      0.0000 |      121.00 |
 | "Created seed tracks in recovery step"          |       500 |       2365 |     4.7300 |     4.0176 |      0.0000 |      21.000 |
 | "Created two-hit combinations in case 0"        |     90710 |    1628371 |     17.951 |     14.819 |      0.0000 |      88.000 |
 | "Created two-hit combinations in case 1"        |     86718 |    2219700 |     25.597 |     18.470 |      0.0000 |      101.00 |
 | "Created two-hit combinations in case 2"        |     74201 |    2962593 |     39.927 |     27.962 |      0.0000 |      146.00 |
PrKalmanFilterForward_80988c7c         INFO Number of counters : 6
 |    Counter                                      |     #     |    sum     | mean/eff^* | rms/err^*  |     min     |     max     |
 | "Pre outlier chi2 cut"                          |        49 |
 | "chi2 cut"                                      |        81 |
 | "nIterations"                                   |       693 |       1937 |     2.7951 |
 | "nOutlierIterations"                            |       644 |        560 |    0.86957 |
 | "nTracksInput"                                  |       500 |        693 |     1.3860 |
 | "nTracksOutput"                                 |       500 |        563 |     1.1260 |
PrKalmanFilterMatch_e8c0be9c           INFO Number of counters : 6
 |    Counter                                      |     #     |    sum     | mean/eff^* | rms/err^*  |     min     |     max     |
 | "Pre outlier chi2 cut"                          |        74 |
 | "chi2 cut"                                      |       217 |
 | "nIterations"                                   |      6554 |      14615 |     2.2299 |
 | "nOutlierIterations"                            |      6480 |       3140 |    0.48457 |
 | "nTracksInput"                                  |       500 |       6554 |     13.108 |
 | "nTracksOutput"                                 |       500 |       6263 |     12.526 |
PrMatchNN_fa01adf0                     INFO Number of counters : 3
 |    Counter                                      |     #     |    sum     | mean/eff^* | rms/err^*  |     min     |     max     |
 | "#MatchingChi2"                                 |       477 |   37325.38 |     78.250 |
 | "#MatchingMLP"                                  |      6554 |   5911.262 |    0.90193 |
 | "#MatchingTracks"                               |       477 |       6554 |     13.740 |
PrStoreSciFiHits_fb0eba02              INFO Number of counters : 25
 |    Counter                                      |     #     |    sum     | mean/eff^* | rms/err^*  |     min     |     max     |
 | "Average X in T1U"                              |     91709 |   -2013907 |    -21.960 |     1101.9 |     -2656.2 |      2656.4 |
 | "Average X in T1V"                              |     90987 |     732489 |     8.0505 |     1113.1 |     -2655.9 |      2656.0 |
 | "Average X in T1X1"                             |     90710 |   -3771936 |    -41.582 |     1127.1 |     -2646.5 |      2646.5 |
 | "Average X in T1X2"                             |     96403 |    1034805 |     10.734 |     1088.3 |     -2646.4 |      2646.4 |
 | "Average X in T2U"                              |     89305 |   428441.1 |     4.7975 |     1120.2 |     -2656.2 |      2656.5 |
 | "Average X in T2V"                              |     91194 |    5216353 |     57.201 |     1089.1 |     -2656.4 |      2655.9 |
 | "Average X in T2X1"                             |     85012 |   -2480646 |    -29.180 |     1122.5 |     -2646.5 |      2646.0 |
 | "Average X in T2X2"                             |     93983 |    2623587 |     27.916 |     1078.3 |     -2646.0 |      2646.3 |
 | "Average X in T3U"                              |     96567 |   -6553363 |    -67.863 |     1278.2 |     -3187.5 |      3189.2 |
 | "Average X in T3V"                              |     99237 |    1553619 |     15.656 |     1284.7 |     -3188.6 |      3188.4 |
 | "Average X in T3X1"                             |     90138 |   -2113284 |    -23.445 |     1297.0 |     -3176.9 |      3177.0 |
 | "Average X in T3X2"                             |    102320 |   -4927171 |    -48.155 |     1236.2 |     -3176.9 |      3177.2 |
 | "Hits in T1U"                                   |      2000 |      91709 |     45.855 |     28.857 |      0.0000 |      201.00 |
 | "Hits in T1V"                                   |      2000 |      90987 |     45.493 |     28.676 |      0.0000 |      162.00 |
 | "Hits in T1X1"                                  |      2000 |      90710 |     45.355 |     28.157 |      0.0000 |      171.00 |
 | "Hits in T1X2"                                  |      2000 |      96403 |     48.202 |     29.984 |      0.0000 |      175.00 |
 | "Hits in T2U"                                   |      2000 |      89305 |     44.653 |     26.394 |      0.0000 |      143.00 |
 | "Hits in T2V"                                   |      2000 |      91194 |     45.597 |     28.137 |      0.0000 |      153.00 |
 | "Hits in T2X1"                                  |      2000 |      85012 |     42.506 |     25.697 |      0.0000 |      153.00 |
 | "Hits in T2X2"                                  |      2000 |      93983 |     46.992 |     28.437 |      0.0000 |      177.00 |
 | "Hits in T3U"                                   |      2000 |      96567 |     48.283 |     27.589 |      0.0000 |      157.00 |
 | "Hits in T3V"                                   |      2000 |      99237 |     49.618 |     29.009 |      0.0000 |      154.00 |
 | "Hits in T3X1"                                  |      2000 |      90138 |     45.069 |     26.275 |      0.0000 |      150.00 |
 | "Hits in T3X2"                                  |      2000 |     102320 |     51.160 |     29.518 |      0.0000 |      171.00 |
 | "Total number of hits"                          |       500 |    1117565 |     2235.1 |     1250.1 |      85.000 |      6470.0 |
PrVPHitsToVPLightClusters_570b2ff0     INFO Number of counters : 1
 |    Counter                                      |     #     |    sum     | mean/eff^* | rms/err^*  |     min     |     max     |
 | "Nb of Produced Clusters"                       |       500 |     173234 |     346.47 |
RichPixelClustering_98aa0d87           INFO Number of counters : 1
 |    Counter                                      |     #     |    sum     | mean/eff^* | rms/err^*  |     min     |     max     |
 | "No DePD object found for decoded channel ID"   |        27 |
TBTCForward_b136948f                   INFO Number of counters : 3
 |    Counter                                      |     #     |    sum     | mean/eff^* | rms/err^*  |     min     |     max     |
 |*"BadInput"                                      |       562 |          0 |( 0.000000 +- 0.000000)% |
 |*"FitFailed"                                     |       562 |          0 |( 0.000000 +- 0.000000)% |
 | "FittedBefore"                                  |       562 |
TBTC_Match_d410de82                    INFO Number of counters : 3
 |    Counter                                      |     #     |    sum     | mean/eff^* | rms/err^*  |     min     |     max     |
 |*"BadInput"                                      |      6185 |          0 |( 0.000000 +- 0.000000)% |
 |*"FitFailed"                                     |      6185 |          0 |( 0.000000 +- 0.000000)% |
 | "FittedBefore"                                  |      6185 |
VeloRetinaClusterTrackingSIMD_b9...    INFO Number of counters : 2
 |    Counter                                      |     #     |    sum     | mean/eff^* | rms/err^*  |     min     |     max     |
 | "Nb of Produced Clusters"                       |       500 |     173234 |     346.47 |
 | "Nb of Produced Tracks"                         |       500 |      23181 |     46.362 |
fromPrSeedingTracksV1Tracks_84cd...    INFO Number of counters : 1
 |    Counter                                      |     #     |    sum     | mean/eff^* | rms/err^*  |     min     |     max     |
 | "Nb of converted Tracks"                        |       500 |      28850 |     57.700 |
fromPrVeloTracksV1TracksMerger_9...    INFO Number of counters : 1
 |    Counter                                      |     #     |    sum     | mean/eff^* | rms/err^*  |     min     |     max     |
 | "Nb of converted Tracks"                        |       500 |      23181 |     46.362 |
fromV2MuonPIDV1MuonPIDLong_a25cee21    INFO Number of counters : 1
 |    Counter                                      |     #     |    sum     | mean/eff^* | rms/err^*  |     min     |     max     |
 | "Nb of Produced MuonPIDs"                       |       500 |       6747 |     13.494 |
